-- Merging decision tree log ---
manifest
ADDED from C:\Users\pvila\StudioProjects\buddhawordFlutLab\android\app\src\main\AndroidManifest.xml:1:1-71:12
INJECTED from C:\Users\pvila\StudioProjects\buddhawordFlutLab\android\app\src\main\AndroidManifest.xml:1:1-71:12
INJECTED from C:\Users\pvila\StudioProjects\buddhawordFlutLab\android\app\src\main\AndroidManifest.xml:1:1-71:12
INJECTED from C:\Users\pvila\StudioProjects\buddhawordFlutLab\android\app\src\main\AndroidManifest.xml:1:1-71:12
MERGED from [:flutter_inappwebview] C:\Users\pvila\StudioProjects\buddhawordFlutLab\build\flutter_inappwebview\intermediates\library_manifest\release\AndroidManifest.xml:2:1-29:12
MERGED from [:sqflite] C:\Users\pvila\StudioProjects\buddhawordFlutLab\build\sqflite\intermediates\library_manifest\release\AndroidManifest.xml:2:1-7:12
MERGED from [:fluttertoast] C:\Users\pvila\StudioProjects\buddhawordFlutLab\build\fluttertoast\intermediates\library_manifest\release\AndroidManifest.xml:2:1-7:12
MERGED from [:advance_pdf_viewer] C:\Users\pvila\StudioProjects\buddhawordFlutLab\build\advance_pdf_viewer\intermediates\library_manifest\release\AndroidManifest.xml:2:1-7:12
MERGED from [:path_provider] C:\Users\pvila\StudioProjects\buddhawordFlutLab\build\path_provider\intermediates\library_manifest\release\AndroidManifest.xml:2:1-7:12
MERGED from [:permission_handler] C:\Users\pvila\StudioProjects\buddhawordFlutLab\build\permission_handler\intermediates\library_manifest\release\AndroidManifest.xml:2:1-7:12
MERGED from [:flutter_downloader] C:\Users\pvila\StudioProjects\buddhawordFlutLab\build\flutter_downloader\intermediates\library_manifest\release\AndroidManifest.xml:2:1-14:12
MERGED from [androidx.webkit:webkit:1.4.0] C:\Users\pvila\.gradle\caches\transforms-2\files-2.1\cada4374676d13de9a4b2c3b9a3d1463\webkit-1.4.0\AndroidManifest.xml:17:1-24:12
MERGED from [androidx.browser:browser:1.3.0] C:\Users\pvila\.gradle\caches\transforms-2\files-2.1\e1934bd52ea9e359f640a1df3414c4bc\browser-1.3.0\AndroidManifest.xml:17:1-24:12
MERGED from [androidx.appcompat:appcompat:1.2.0] C:\Users\pvila\.gradle\caches\transforms-2\files-2.1\66f7eccd2ffbe50a605d55f868156aac\appcompat-1.2.0\AndroidManifest.xml:17:1-24:12
MERGED from [androidx.swiperefreshlayout:swiperefreshlayout:1.1.0] C:\Users\pvila\.gradle\caches\transforms-2\files-2.1\ee474201371b298ee6a347da18919637\swiperefreshlayout-1.1.0\AndroidManifest.xml:17:1-24:12
MERGED from [androidx.work:work-runtime:2.7.0-rc01] C:\Users\pvila\.gradle\caches\transforms-2\files-2.1\2aac65ef0746e64ae3f699b917525350\work-runtime-2.7.0-rc01\AndroidManifest.xml:17:1-145:12
MERGED from [androidx.fragment:fragment:1.3.6] C:\Users\pvila\.gradle\caches\transforms-2\files-2.1\87f0008fdc1111401c6e28e04fc6f494\fragment-1.3.6\AndroidManifest.xml:17:1-24:12
MERGED from [androidx.appcompat:appcompat-resources:1.2.0] C:\Users\pvila\.gradle\caches\transforms-2\files-2.1\a72903bd871e0b84a9b37bdc5f04066b\jetified-appcompat-resources-1.2.0\AndroidManifest.xml:17:1-24:12
MERGED from [androidx.drawerlayout:drawerlayout:1.0.0] C:\Users\pvila\.gradle\caches\transforms-2\files-2.1\2c45117a36ab66773ae499e465f251bc\drawerlayout-1.0.0\AndroidManifest.xml:17:1-22:12
MERGED from [androidx.viewpager:viewpager:1.0.0] C:\Users\pvila\.gradle\caches\transforms-2\files-2.1\8cf7479617f1b96587d6398f04804039\viewpager-1.0.0\AndroidManifest.xml:17:1-22:12
MERGED from [androidx.loader:loader:1.0.0] C:\Users\pvila\.gradle\caches\transforms-2\files-2.1\d561ea83753ab00d538bec1084086a22\loader-1.0.0\AndroidManifest.xml:17:1-22:12
MERGED from [androidx.activity:activity:1.2.4] C:\Users\pvila\.gradle\caches\transforms-2\files-2.1\2483b59a82b1b224dca819df77375a28\jetified-activity-1.2.4\AndroidManifest.xml:17:1-24:12
MERGED from [androidx.vectordrawable:vectordrawable-animated:1.1.0] C:\Users\pvila\.gradle\caches\transforms-2\files-2.1\ca05cd440190956aef2842a3774294b7\vectordrawable-animated-1.1.0\AndroidManifest.xml:17:1-24:12
MERGED from [androidx.vectordrawable:vectordrawable:1.1.0] C:\Users\pvila\.gradle\caches\transforms-2\files-2.1\75628619484d51af69f29d0c5526e285\vectordrawable-1.1.0\AndroidManifest.xml:17:1-24:12
MERGED from [androidx.customview:customview:1.0.0] C:\Users\pvila\.gradle\caches\transforms-2\files-2.1\4e8b314d2310c9ad44eb5e690dbcbd79\customview-1.0.0\AndroidManifest.xml:17:1-22:12
MERGED from [androidx.core:core:1.6.0] C:\Users\pvila\.gradle\caches\transforms-2\files-2.1\fcd6aa6b9a0a96f26803b0c5f1e42418\core-1.6.0\AndroidManifest.xml:17:1-26:12
MERGED from [androidx.versionedparcelable:versionedparcelable:1.1.1] C:\Users\pvila\.gradle\caches\transforms-2\files-2.1\9828ed1e3ec07785d8d4bdd619c932ce\versionedparcelable-1.1.1\AndroidManifest.xml:17:1-27:12
MERGED from [androidx.interpolator:interpolator:1.0.0] C:\Users\pvila\.gradle\caches\transforms-2\files-2.1\610228d7808e3588bb438081c94361e5\interpolator-1.0.0\AndroidManifest.xml:17:1-22:12
MERGED from [androidx.cursoradapter:cursoradapter:1.0.0] C:\Users\pvila\.gradle\caches\transforms-2\files-2.1\83764601400ef2929de089bae00b71a6\cursoradapter-1.0.0\AndroidManifest.xml:17:1-22:12
MERGED from [androidx.startup:startup-runtime:1.0.0] C:\Users\pvila\.gradle\caches\transforms-2\files-2.1\9701df95eee5c0b746efb5e675895a92\jetified-startup-runtime-1.0.0\AndroidManifest.xml:17:1-33:12
MERGED from [androidx.room:room-runtime:2.2.5] C:\Users\pvila\.gradle\caches\transforms-2\files-2.1\ea5ccf729e19bc8d9f7e9658551e5b18\room-runtime-2.2.5\AndroidManifest.xml:17:1-31:12
MERGED from [androidx.sqlite:sqlite-framework:2.1.0] C:\Users\pvila\.gradle\caches\transforms-2\files-2.1\d970436968c33de13b700e52d0242a9f\sqlite-framework-2.1.0\AndroidManifest.xml:17:1-24:12
MERGED from [androidx.sqlite:sqlite:2.1.0] C:\Users\pvila\.gradle\caches\transforms-2\files-2.1\7af9b4236a10fcaf2329c4a4d8e6a1e0\sqlite-2.1.0\AndroidManifest.xml:17:1-24:12
MERGED from [androidx.lifecycle:lifecycle-viewmodel-savedstate:2.3.1] C:\Users\pvila\.gradle\caches\transforms-2\files-2.1\6e25961dbe396655584af64c5adcd981\jetified-lifecycle-viewmodel-savedstate-2.3.1\AndroidManifest.xml:17:1-24:12
MERGED from [androidx.lifecycle:lifecycle-viewmodel:2.3.1] C:\Users\pvila\.gradle\caches\transforms-2\files-2.1\46d4aad6aa051e02e06fb8b73fdb764f\lifecycle-viewmodel-2.3.1\AndroidManifest.xml:17:1-24:12
MERGED from [androidx.savedstate:savedstate:1.1.0] C:\Users\pvila\.gradle\caches\transforms-2\files-2.1\2d6c2c08d327df7cb26ecaf35dd4a5bf\jetified-savedstate-1.1.0\AndroidManifest.xml:17:1-24:12
MERGED from [androidx.lifecycle:lifecycle-livedata:2.1.0] C:\Users\pvila\.gradle\caches\transforms-2\files-2.1\7fae335d84b008d030443482321ee4cd\lifecycle-livedata-2.1.0\AndroidManifest.xml:17:1-22:12
MERGED from [androidx.lifecycle:lifecycle-livedata-core:2.3.1] C:\Users\pvila\.gradle\caches\transforms-2\files-2.1\2e36748bf9d97ef0f96f160e01eb3ae3\lifecycle-livedata-core-2.3.1\AndroidManifest.xml:17:1-24:12
MERGED from [androidx.lifecycle:lifecycle-service:2.1.0] C:\Users\pvila\.gradle\caches\transforms-2\files-2.1\6920bbf5ccf3835dfa7d43129a7a6aad\jetified-lifecycle-service-2.1.0\AndroidManifest.xml:17:1-22:12
MERGED from [androidx.lifecycle:lifecycle-runtime:2.3.1] C:\Users\pvila\.gradle\caches\transforms-2\files-2.1\47386d1e2ec8db6b23834b9ecf7038ca\lifecycle-runtime-2.3.1\AndroidManifest.xml:17:1-24:12
MERGED from [androidx.arch.core:core-runtime:2.1.0] C:\Users\pvila\.gradle\caches\transforms-2\files-2.1\33271547215b88a86438290c6502b1aa\core-runtime-2.1.0\AndroidManifest.xml:17:1-24:12
MERGED from [androidx.tracing:tracing:1.0.0] C:\Users\pvila\.gradle\caches\transforms-2\files-2.1\8f86242995a9f851742ad832b6c5acb6\jetified-tracing-1.0.0\AndroidManifest.xml:17:1-24:12
MERGED from [androidx.annotation:annotation-experimental:1.1.0] C:\Users\pvila\.gradle\caches\transforms-2\files-2.1\511d2ae514d83f018209766dde7294ed\jetified-annotation-experimental-1.1.0\AndroidManifest.xml:17:1-24:12
INJECTED from C:\Users\pvila\StudioProjects\buddhawordFlutLab\android\app\src\main\AndroidManifest.xml:1:1-71:12
INJECTED from C:\Users\pvila\StudioProjects\buddhawordFlutLab\android\app\src\main\AndroidManifest.xml:1:1-71:12
INJECTED from C:\Users\pvila\StudioProjects\buddhawordFlutLab\android\app\src\main\AndroidManifest.xml:1:1-71:12
	package
		ADDED from C:\Users\pvila\StudioProjects\buddhawordFlutLab\android\app\src\main\AndroidManifest.xml:2:5-37
		INJECTED from C:\Users\pvila\StudioProjects\buddhawordFlutLab\android\app\src\main\AndroidManifest.xml
		INJECTED from C:\Users\pvila\StudioProjects\buddhawordFlutLab\android\app\src\main\AndroidManifest.xml
	android:versionName
		INJECTED from C:\Users\pvila\StudioProjects\buddhawordFlutLab\android\app\src\main\AndroidManifest.xml
		ADDED from C:\Users\pvila\StudioProjects\buddhawordFlutLab\android\app\src\main\AndroidManifest.xml:1:1-71:12
		INJECTED from C:\Users\pvila\StudioProjects\buddhawordFlutLab\android\app\src\main\AndroidManifest.xml
	xmlns:tools
		ADDED from C:\Users\pvila\StudioProjects\buddhawordFlutLab\android\app\src\main\AndroidManifest.xml:3:5-51
	android:versionCode
		INJECTED from C:\Users\pvila\StudioProjects\buddhawordFlutLab\android\app\src\main\AndroidManifest.xml
		ADDED from C:\Users\pvila\StudioProjects\buddhawordFlutLab\android\app\src\main\AndroidManifest.xml:1:1-71:12
		INJECTED from C:\Users\pvila\StudioProjects\buddhawordFlutLab\android\app\src\main\AndroidManifest.xml
	xmlns:android
		ADDED from C:\Users\pvila\StudioProjects\buddhawordFlutLab\android\app\src\main\AndroidManifest.xml:1:11-69
uses-permission#android.permission.INTERNET
ADDED from C:\Users\pvila\StudioProjects\buddhawordFlutLab\android\app\src\main\AndroidManifest.xml:4:11-73
	android:name
		ADDED from C:\Users\pvila\StudioProjects\buddhawordFlutLab\android\app\src\main\AndroidManifest.xml:4:28-70
uses-permission#android.permission.READ_PHONE_STATE
ADDED from C:\Users\pvila\StudioProjects\buddhawordFlutLab\android\app\src\main\AndroidManifest.xml:5:11-80
	android:name
		ADDED from C:\Users\pvila\StudioProjects\buddhawordFlutLab\android\app\src\main\AndroidManifest.xml:5:28-78
uses-permission#android.permission.CAMERA
ADDED from C:\Users\pvila\StudioProjects\buddhawordFlutLab\android\app\src\main\AndroidManifest.xml:6:11-71
	android:name
		ADDED from C:\Users\pvila\StudioProjects\buddhawordFlutLab\android\app\src\main\AndroidManifest.xml:6:28-68
uses-permission#android.permission.RECORD_AUDIO
ADDED from C:\Users\pvila\StudioProjects\buddhawordFlutLab\android\app\src\main\AndroidManifest.xml:7:11-77
	android:name
		ADDED from C:\Users\pvila\StudioProjects\buddhawordFlutLab\android\app\src\main\AndroidManifest.xml:7:28-74
uses-permission#android.permission.MODIFY_AUDIO_SETTINGS
ADDED from C:\Users\pvila\StudioProjects\buddhawordFlutLab\android\app\src\main\AndroidManifest.xml:8:11-86
	android:name
		ADDED from C:\Users\pvila\StudioProjects\buddhawordFlutLab\android\app\src\main\AndroidManifest.xml:8:28-83
uses-permission#android.permission.VIDEO_CAPTURE
ADDED from C:\Users\pvila\StudioProjects\buddhawordFlutLab\android\app\src\main\AndroidManifest.xml:9:11-78
	android:name
		ADDED from C:\Users\pvila\StudioProjects\buddhawordFlutLab\android\app\src\main\AndroidManifest.xml:9:28-75
uses-permission#android.permission.AUDIO_CAPTURE
ADDED from C:\Users\pvila\StudioProjects\buddhawordFlutLab\android\app\src\main\AndroidManifest.xml:10:11-78
	android:name
		ADDED from C:\Users\pvila\StudioProjects\buddhawordFlutLab\android\app\src\main\AndroidManifest.xml:10:28-75
uses-permission#android.permission.ACCESS_NETWORK_STATE
ADDED from C:\Users\pvila\StudioProjects\buddhawordFlutLab\android\app\src\main\AndroidManifest.xml:11:11-85
MERGED from [androidx.work:work-runtime:2.7.0-rc01] C:\Users\pvila\.gradle\caches\transforms-2\files-2.1\2aac65ef0746e64ae3f699b917525350\work-runtime-2.7.0-rc01\AndroidManifest.xml:26:5-79
MERGED from [androidx.work:work-runtime:2.7.0-rc01] C:\Users\pvila\.gradle\caches\transforms-2\files-2.1\2aac65ef0746e64ae3f699b917525350\work-runtime-2.7.0-rc01\AndroidManifest.xml:26:5-79
	android:name
		ADDED from C:\Users\pvila\StudioProjects\buddhawordFlutLab\android\app\src\main\AndroidManifest.xml:11:28-82
uses-permission#android.permission.WAKE_LOCK
ADDED from C:\Users\pvila\StudioProjects\buddhawordFlutLab\android\app\src\main\AndroidManifest.xml:12:11-74
MERGED from [androidx.work:work-runtime:2.7.0-rc01] C:\Users\pvila\.gradle\caches\transforms-2\files-2.1\2aac65ef0746e64ae3f699b917525350\work-runtime-2.7.0-rc01\AndroidManifest.xml:25:5-68
MERGED from [androidx.work:work-runtime:2.7.0-rc01] C:\Users\pvila\.gradle\caches\transforms-2\files-2.1\2aac65ef0746e64ae3f699b917525350\work-runtime-2.7.0-rc01\AndroidManifest.xml:25:5-68
	android:name
		ADDED from C:\Users\pvila\StudioProjects\buddhawordFlutLab\android\app\src\main\AndroidManifest.xml:12:28-71
uses-permission#android.permission.READ_EXTERNAL_STORAGE
ADDED from C:\Users\pvila\StudioProjects\buddhawordFlutLab\android\app\src\main\AndroidManifest.xml:13:11-86
	android:name
		ADDED from C:\Users\pvila\StudioProjects\buddhawordFlutLab\android\app\src\main\AndroidManifest.xml:13:28-83
uses-permission#android.permission.WRITE_EXTERNAL_STORAGE
ADDED from C:\Users\pvila\StudioProjects\buddhawordFlutLab\android\app\src\main\AndroidManifest.xml:14:11-87
	android:name
		ADDED from C:\Users\pvila\StudioProjects\buddhawordFlutLab\android\app\src\main\AndroidManifest.xml:14:28-84
uses-permission#android.permission.MICROPHONE
ADDED from C:\Users\pvila\StudioProjects\buddhawordFlutLab\android\app\src\main\AndroidManifest.xml:15:11-75
	android:name
		ADDED from C:\Users\pvila\StudioProjects\buddhawordFlutLab\android\app\src\main\AndroidManifest.xml:15:28-72
uses-permission#android.permission.READ_CALL_LOG
ADDED from C:\Users\pvila\StudioProjects\buddhawordFlutLab\android\app\src\main\AndroidManifest.xml:16:11-78
	android:name
		ADDED from C:\Users\pvila\StudioProjects\buddhawordFlutLab\android\app\src\main\AndroidManifest.xml:16:28-75
uses-permission#android.permission.WRITE_SETTINGS
ADDED from C:\Users\pvila\StudioProjects\buddhawordFlutLab\android\app\src\main\AndroidManifest.xml:18:11-79
	android:name
		ADDED from C:\Users\pvila\StudioProjects\buddhawordFlutLab\android\app\src\main\AndroidManifest.xml:18:28-76
uses-permission#com.android.permission.HANDOVER_STATUS
ADDED from C:\Users\pvila\StudioProjects\buddhawordFlutLab\android\app\src\main\AndroidManifest.xml:19:11-84
	android:name
		ADDED from C:\Users\pvila\StudioProjects\buddhawordFlutLab\android\app\src\main\AndroidManifest.xml:19:28-81
uses-permission#android.permission.WRITE_SECURE_SETTINGS
ADDED from C:\Users\pvila\StudioProjects\buddhawordFlutLab\android\app\src\main\AndroidManifest.xml:20:11-86
	android:name
		ADDED from C:\Users\pvila\StudioProjects\buddhawordFlutLab\android\app\src\main\AndroidManifest.xml:20:28-83
uses-permission#android.permission.NET_ADMIN
ADDED from C:\Users\pvila\StudioProjects\buddhawordFlutLab\android\app\src\main\AndroidManifest.xml:21:11-74
	android:name
		ADDED from C:\Users\pvila\StudioProjects\buddhawordFlutLab\android\app\src\main\AndroidManifest.xml:21:28-71
uses-permission#android.permission.CALL_PRIVILEGED
ADDED from C:\Users\pvila\StudioProjects\buddhawordFlutLab\android\app\src\main\AndroidManifest.xml:22:11-80
	android:name
		ADDED from C:\Users\pvila\StudioProjects\buddhawordFlutLab\android\app\src\main\AndroidManifest.xml:22:28-77
uses-permission#android.permission.NET_TUNNELING
ADDED from C:\Users\pvila\StudioProjects\buddhawordFlutLab\android\app\src\main\AndroidManifest.xml:24:11-78
	android:name
		ADDED from C:\Users\pvila\StudioProjects\buddhawordFlutLab\android\app\src\main\AndroidManifest.xml:24:28-75
uses-permission#android.permission.CHANGE_NETWORK_STATE
ADDED from C:\Users\pvila\StudioProjects\buddhawordFlutLab\android\app\src\main\AndroidManifest.xml:26:11-85
	android:name
		ADDED from C:\Users\pvila\StudioProjects\buddhawordFlutLab\android\app\src\main\AndroidManifest.xml:26:28-82
uses-permission#android.permission.CONNECTIVITY_INTERNAL
ADDED from C:\Users\pvila\StudioProjects\buddhawordFlutLab\android\app\src\main\AndroidManifest.xml:27:11-86
	android:name
		ADDED from C:\Users\pvila\StudioProjects\buddhawordFlutLab\android\app\src\main\AndroidManifest.xml:27:28-83
uses-permission#android.permission.MODIFY_PHONE_STATE
ADDED from C:\Users\pvila\StudioProjects\buddhawordFlutLab\android\app\src\main\AndroidManifest.xml:28:11-83
	android:name
		ADDED from C:\Users\pvila\StudioProjects\buddhawordFlutLab\android\app\src\main\AndroidManifest.xml:28:28-80
uses-permission#android.permission.INTERACT_ACROSS_USERS_FULL
ADDED from C:\Users\pvila\StudioProjects\buddhawordFlutLab\android\app\src\main\AndroidManifest.xml:29:11-91
	android:name
		ADDED from C:\Users\pvila\StudioProjects\buddhawordFlutLab\android\app\src\main\AndroidManifest.xml:29:28-88
uses-permission#android.permission.INTERACT_ACROSS_USERS
ADDED from C:\Users\pvila\StudioProjects\buddhawordFlutLab\android\app\src\main\AndroidManifest.xml:30:11-85
	android:name
		ADDED from C:\Users\pvila\StudioProjects\buddhawordFlutLab\android\app\src\main\AndroidManifest.xml:30:28-83
uses-permission#android.permission.MANAGE_USERS
ADDED from C:\Users\pvila\StudioProjects\buddhawordFlutLab\android\app\src\main\AndroidManifest.xml:31:11-76
	android:name
		ADDED from C:\Users\pvila\StudioProjects\buddhawordFlutLab\android\app\src\main\AndroidManifest.xml:31:28-74
uses-permission#com.google.android.gallery3d.permission.GALLERY_PROVIDER
ADDED from C:\Users\pvila\StudioProjects\buddhawordFlutLab\android\app\src\main\AndroidManifest.xml:32:11-101
	android:name
		ADDED from C:\Users\pvila\StudioProjects\buddhawordFlutLab\android\app\src\main\AndroidManifest.xml:32:28-99
uses-permission#com.android.gallery3d.permission.GALLERY_PROVIDER
ADDED from C:\Users\pvila\StudioProjects\buddhawordFlutLab\android\app\src\main\AndroidManifest.xml:33:11-94
	android:name
		ADDED from C:\Users\pvila\StudioProjects\buddhawordFlutLab\android\app\src\main\AndroidManifest.xml:33:28-92
uses-permission#android.permission.MMS_SEND_OUTBOX_MSG
ADDED from C:\Users\pvila\StudioProjects\buddhawordFlutLab\android\app\src\main\AndroidManifest.xml:34:11-83
	android:name
		ADDED from C:\Users\pvila\StudioProjects\buddhawordFlutLab\android\app\src\main\AndroidManifest.xml:34:28-81
uses-permission#android.permission.RECEIVE_SMS
ADDED from C:\Users\pvila\StudioProjects\buddhawordFlutLab\android\app\src\main\AndroidManifest.xml:35:11-76
	android:name
		ADDED from C:\Users\pvila\StudioProjects\buddhawordFlutLab\android\app\src\main\AndroidManifest.xml:35:28-73
uses-permission#android.permission.SEND_SMS
ADDED from C:\Users\pvila\StudioProjects\buddhawordFlutLab\android\app\src\main\AndroidManifest.xml:36:11-73
	android:name
		ADDED from C:\Users\pvila\StudioProjects\buddhawordFlutLab\android\app\src\main\AndroidManifest.xml:36:28-70
uses-permission#android.permission.READ_SMS
ADDED from C:\Users\pvila\StudioProjects\buddhawordFlutLab\android\app\src\main\AndroidManifest.xml:37:11-73
	android:name
		ADDED from C:\Users\pvila\StudioProjects\buddhawordFlutLab\android\app\src\main\AndroidManifest.xml:37:28-70
uses-permission#android.permission.WRITE_SMS
ADDED from C:\Users\pvila\StudioProjects\buddhawordFlutLab\android\app\src\main\AndroidManifest.xml:38:11-74
	android:name
		ADDED from C:\Users\pvila\StudioProjects\buddhawordFlutLab\android\app\src\main\AndroidManifest.xml:38:28-71
uses-permission#android.permission.READ_CONTACTS
ADDED from C:\Users\pvila\StudioProjects\buddhawordFlutLab\android\app\src\main\AndroidManifest.xml:39:11-78
	android:name
		ADDED from C:\Users\pvila\StudioProjects\buddhawordFlutLab\android\app\src\main\AndroidManifest.xml:39:28-75
uses-permission#android.permission.MEDIA_CONTENT_CONTROL
ADDED from C:\Users\pvila\StudioProjects\buddhawordFlutLab\android\app\src\main\AndroidManifest.xml:41:11-86
	android:name
		ADDED from C:\Users\pvila\StudioProjects\buddhawordFlutLab\android\app\src\main\AndroidManifest.xml:41:28-83
uses-permission#android.permission.REQUEST_INSTALL_PACKAGES
ADDED from C:\Users\pvila\StudioProjects\buddhawordFlutLab\android\app\src\main\AndroidManifest.xml:42:11-89
	android:name
		ADDED from C:\Users\pvila\StudioProjects\buddhawordFlutLab\android\app\src\main\AndroidManifest.xml:42:28-86
uses-permission#android.permission.ACCESS_WIFI_STATE
ADDED from C:\Users\pvila\StudioProjects\buddhawordFlutLab\android\app\src\main\AndroidManifest.xml:43:11-82
	android:name
		ADDED from C:\Users\pvila\StudioProjects\buddhawordFlutLab\android\app\src\main\AndroidManifest.xml:43:28-79
application
ADDED from C:\Users\pvila\StudioProjects\buddhawordFlutLab\android\app\src\main\AndroidManifest.xml:49:5-70:19
MERGED from [:flutter_inappwebview] C:\Users\pvila\StudioProjects\buddhawordFlutLab\build\flutter_inappwebview\intermediates\library_manifest\release\AndroidManifest.xml:13:5-27:19
MERGED from [:flutter_inappwebview] C:\Users\pvila\StudioProjects\buddhawordFlutLab\build\flutter_inappwebview\intermediates\library_manifest\release\AndroidManifest.xml:13:5-27:19
MERGED from [androidx.work:work-runtime:2.7.0-rc01] C:\Users\pvila\.gradle\caches\transforms-2\files-2.1\2aac65ef0746e64ae3f699b917525350\work-runtime-2.7.0-rc01\AndroidManifest.xml:30:5-143:19
MERGED from [androidx.work:work-runtime:2.7.0-rc01] C:\Users\pvila\.gradle\caches\transforms-2\files-2.1\2aac65ef0746e64ae3f699b917525350\work-runtime-2.7.0-rc01\AndroidManifest.xml:30:5-143:19
MERGED from [androidx.core:core:1.6.0] C:\Users\pvila\.gradle\caches\transforms-2\files-2.1\fcd6aa6b9a0a96f26803b0c5f1e42418\core-1.6.0\AndroidManifest.xml:24:5-89
MERGED from [androidx.core:core:1.6.0] C:\Users\pvila\.gradle\caches\transforms-2\files-2.1\fcd6aa6b9a0a96f26803b0c5f1e42418\core-1.6.0\AndroidManifest.xml:24:5-89
MERGED from [androidx.versionedparcelable:versionedparcelable:1.1.1] C:\Users\pvila\.gradle\caches\transforms-2\files-2.1\9828ed1e3ec07785d8d4bdd619c932ce\versionedparcelable-1.1.1\AndroidManifest.xml:24:5-25:19
MERGED from [androidx.versionedparcelable:versionedparcelable:1.1.1] C:\Users\pvila\.gradle\caches\transforms-2\files-2.1\9828ed1e3ec07785d8d4bdd619c932ce\versionedparcelable-1.1.1\AndroidManifest.xml:24:5-25:19
MERGED from [androidx.startup:startup-runtime:1.0.0] C:\Users\pvila\.gradle\caches\transforms-2\files-2.1\9701df95eee5c0b746efb5e675895a92\jetified-startup-runtime-1.0.0\AndroidManifest.xml:25:5-31:19
MERGED from [androidx.startup:startup-runtime:1.0.0] C:\Users\pvila\.gradle\caches\transforms-2\files-2.1\9701df95eee5c0b746efb5e675895a92\jetified-startup-runtime-1.0.0\AndroidManifest.xml:25:5-31:19
MERGED from [androidx.room:room-runtime:2.2.5] C:\Users\pvila\.gradle\caches\transforms-2\files-2.1\ea5ccf729e19bc8d9f7e9658551e5b18\room-runtime-2.2.5\AndroidManifest.xml:24:5-29:19
MERGED from [androidx.room:room-runtime:2.2.5] C:\Users\pvila\.gradle\caches\transforms-2\files-2.1\ea5ccf729e19bc8d9f7e9658551e5b18\room-runtime-2.2.5\AndroidManifest.xml:24:5-29:19
	android:appComponentFactory
		ADDED from [androidx.core:core:1.6.0] C:\Users\pvila\.gradle\caches\transforms-2\files-2.1\fcd6aa6b9a0a96f26803b0c5f1e42418\core-1.6.0\AndroidManifest.xml:24:18-86
	android:label
		ADDED from C:\Users\pvila\StudioProjects\buddhawordFlutLab\android\app\src\main\AndroidManifest.xml:51:9-43
	android:icon
		ADDED from C:\Users\pvila\StudioProjects\buddhawordFlutLab\android\app\src\main\AndroidManifest.xml:52:9-45
	android:name
		ADDED from C:\Users\pvila\StudioProjects\buddhawordFlutLab\android\app\src\main\AndroidManifest.xml:50:9-57
activity#com.example.buddhaword.MainActivity
ADDED from C:\Users\pvila\StudioProjects\buddhawordFlutLab\android\app\src\main\AndroidManifest.xml:53:9-64:20
	android:launchMode
		ADDED from C:\Users\pvila\StudioProjects\buddhawordFlutLab\android\app\src\main\AndroidManifest.xml:55:13-43
	android:hardwareAccelerated
		ADDED from C:\Users\pvila\StudioProjects\buddhawordFlutLab\android\app\src\main\AndroidManifest.xml:58:13-47
	android:windowSoftInputMode
		ADDED from C:\Users\pvila\StudioProjects\buddhawordFlutLab\android\app\src\main\AndroidManifest.xml:59:13-55
	android:configChanges
		ADDED from C:\Users\pvila\StudioProjects\buddhawordFlutLab\android\app\src\main\AndroidManifest.xml:57:13-163
	android:theme
		ADDED from C:\Users\pvila\StudioProjects\buddhawordFlutLab\android\app\src\main\AndroidManifest.xml:56:13-47
	android:name
		ADDED from C:\Users\pvila\StudioProjects\buddhawordFlutLab\android\app\src\main\AndroidManifest.xml:54:13-41
intent-filter#action:name:android.intent.action.MAIN+category:name:android.intent.category.LAUNCHER
ADDED from C:\Users\pvila\StudioProjects\buddhawordFlutLab\android\app\src\main\AndroidManifest.xml:60:13-63:29
action#android.intent.action.MAIN
ADDED from C:\Users\pvila\StudioProjects\buddhawordFlutLab\android\app\src\main\AndroidManifest.xml:61:17-68
	android:name
		ADDED from C:\Users\pvila\StudioProjects\buddhawordFlutLab\android\app\src\main\AndroidManifest.xml:61:25-66
category#android.intent.category.LAUNCHER
ADDED from C:\Users\pvila\StudioProjects\buddhawordFlutLab\android\app\src\main\AndroidManifest.xml:62:17-76
	android:name
		ADDED from C:\Users\pvila\StudioProjects\buddhawordFlutLab\android\app\src\main\AndroidManifest.xml:62:27-74
meta-data#flutterEmbedding
ADDED from C:\Users\pvila\StudioProjects\buddhawordFlutLab\android\app\src\main\AndroidManifest.xml:67:9-69:33
	android:value
		ADDED from C:\Users\pvila\StudioProjects\buddhawordFlutLab\android\app\src\main\AndroidManifest.xml:69:13-30
	android:name
		ADDED from C:\Users\pvila\StudioProjects\buddhawordFlutLab\android\app\src\main\AndroidManifest.xml:68:13-44
uses-sdk
INJECTED from C:\Users\pvila\StudioProjects\buddhawordFlutLab\android\app\src\main\AndroidManifest.xml reason: use-sdk injection requested
INJECTED from C:\Users\pvila\StudioProjects\buddhawordFlutLab\android\app\src\main\AndroidManifest.xml
INJECTED from C:\Users\pvila\StudioProjects\buddhawordFlutLab\android\app\src\main\AndroidManifest.xml
MERGED from [:flutter_inappwebview] C:\Users\pvila\StudioProjects\buddhawordFlutLab\build\flutter_inappwebview\intermediates\library_manifest\release\AndroidManifest.xml:5:5-44
MERGED from [:flutter_inappwebview] C:\Users\pvila\StudioProjects\buddhawordFlutLab\build\flutter_inappwebview\intermediates\library_manifest\release\AndroidManifest.xml:5:5-44
MERGED from [:sqflite] C:\Users\pvila\StudioProjects\buddhawordFlutLab\build\sqflite\intermediates\library_manifest\release\AndroidManifest.xml:5:5-44
MERGED from [:sqflite] C:\Users\pvila\StudioProjects\buddhawordFlutLab\build\sqflite\intermediates\library_manifest\release\AndroidManifest.xml:5:5-44
MERGED from [:fluttertoast] C:\Users\pvila\StudioProjects\buddhawordFlutLab\build\fluttertoast\intermediates\library_manifest\release\AndroidManifest.xml:5:5-44
MERGED from [:fluttertoast] C:\Users\pvila\StudioProjects\buddhawordFlutLab\build\fluttertoast\intermediates\library_manifest\release\AndroidManifest.xml:5:5-44
MERGED from [:advance_pdf_viewer] C:\Users\pvila\StudioProjects\buddhawordFlutLab\build\advance_pdf_viewer\intermediates\library_manifest\release\AndroidManifest.xml:5:5-44
MERGED from [:advance_pdf_viewer] C:\Users\pvila\StudioProjects\buddhawordFlutLab\build\advance_pdf_viewer\intermediates\library_manifest\release\AndroidManifest.xml:5:5-44
MERGED from [:path_provider] C:\Users\pvila\StudioProjects\buddhawordFlutLab\build\path_provider\intermediates\library_manifest\release\AndroidManifest.xml:5:5-44
MERGED from [:path_provider] C:\Users\pvila\StudioProjects\buddhawordFlutLab\build\path_provider\intermediates\library_manifest\release\AndroidManifest.xml:5:5-44
MERGED from [:permission_handler] C:\Users\pvila\StudioProjects\buddhawordFlutLab\build\permission_handler\intermediates\library_manifest\release\AndroidManifest.xml:5:5-44
MERGED from [:permission_handler] C:\Users\pvila\StudioProjects\buddhawordFlutLab\build\permission_handler\intermediates\library_manifest\release\AndroidManifest.xml:5:5-44
MERGED from [:flutter_downloader] C:\Users\pvila\StudioProjects\buddhawordFlutLab\build\flutter_downloader\intermediates\library_manifest\release\AndroidManifest.xml:5:5-44
MERGED from [:flutter_downloader] C:\Users\pvila\StudioProjects\buddhawordFlutLab\build\flutter_downloader\intermediates\library_manifest\release\AndroidManifest.xml:5:5-44
MERGED from [androidx.webkit:webkit:1.4.0] C:\Users\pvila\.gradle\caches\transforms-2\files-2.1\cada4374676d13de9a4b2c3b9a3d1463\webkit-1.4.0\AndroidManifest.xml:20:5-22:41
MERGED from [androidx.webkit:webkit:1.4.0] C:\Users\pvila\.gradle\caches\transforms-2\files-2.1\cada4374676d13de9a4b2c3b9a3d1463\webkit-1.4.0\AndroidManifest.xml:20:5-22:41
MERGED from [androidx.browser:browser:1.3.0] C:\Users\pvila\.gradle\caches\transforms-2\files-2.1\e1934bd52ea9e359f640a1df3414c4bc\browser-1.3.0\AndroidManifest.xml:20:5-22:41
MERGED from [androidx.browser:browser:1.3.0] C:\Users\pvila\.gradle\caches\transforms-2\files-2.1\e1934bd52ea9e359f640a1df3414c4bc\browser-1.3.0\AndroidManifest.xml:20:5-22:41
MERGED from [androidx.appcompat:appcompat:1.2.0] C:\Users\pvila\.gradle\caches\transforms-2\files-2.1\66f7eccd2ffbe50a605d55f868156aac\appcompat-1.2.0\AndroidManifest.xml:20:5-22:41
MERGED from [androidx.appcompat:appcompat:1.2.0] C:\Users\pvila\.gradle\caches\transforms-2\files-2.1\66f7eccd2ffbe50a605d55f868156aac\appcompat-1.2.0\AndroidManifest.xml:20:5-22:41
MERGED from [androidx.swiperefreshlayout:swiperefreshlayout:1.1.0] C:\Users\pvila\.gradle\caches\transforms-2\files-2.1\ee474201371b298ee6a347da18919637\swiperefreshlayout-1.1.0\AndroidManifest.xml:20:5-22:41
MERGED from [androidx.swiperefreshlayout:swiperefreshlayout:1.1.0] C:\Users\pvila\.gradle\caches\transforms-2\files-2.1\ee474201371b298ee6a347da18919637\swiperefreshlayout-1.1.0\AndroidManifest.xml:20:5-22:41
MERGED from [androidx.work:work-runtime:2.7.0-rc01] C:\Users\pvila\.gradle\caches\transforms-2\files-2.1\2aac65ef0746e64ae3f699b917525350\work-runtime-2.7.0-rc01\AndroidManifest.xml:21:5-23:41
MERGED from [androidx.work:work-runtime:2.7.0-rc01] C:\Users\pvila\.gradle\caches\transforms-2\files-2.1\2aac65ef0746e64ae3f699b917525350\work-runtime-2.7.0-rc01\AndroidManifest.xml:21:5-23:41
MERGED from [androidx.fragment:fragment:1.3.6] C:\Users\pvila\.gradle\caches\transforms-2\files-2.1\87f0008fdc1111401c6e28e04fc6f494\fragment-1.3.6\AndroidManifest.xml:20:5-22:41
MERGED from [androidx.fragment:fragment:1.3.6] C:\Users\pvila\.gradle\caches\transforms-2\files-2.1\87f0008fdc1111401c6e28e04fc6f494\fragment-1.3.6\AndroidManifest.xml:20:5-22:41
MERGED from [androidx.appcompat:appcompat-resources:1.2.0] C:\Users\pvila\.gradle\caches\transforms-2\files-2.1\a72903bd871e0b84a9b37bdc5f04066b\jetified-appcompat-resources-1.2.0\AndroidManifest.xml:20:5-22:41
MERGED from [androidx.appcompat:appcompat-resources:1.2.0] C:\Users\pvila\.gradle\caches\transforms-2\files-2.1\a72903bd871e0b84a9b37bdc5f04066b\jetified-appcompat-resources-1.2.0\AndroidManifest.xml:20:5-22:41
MERGED from [androidx.drawerlayout:drawerlayout:1.0.0] C:\Users\pvila\.gradle\caches\transforms-2\files-2.1\2c45117a36ab66773ae499e465f251bc\drawerlayout-1.0.0\AndroidManifest.xml:20:5-44
MERGED from [androidx.drawerlayout:drawerlayout:1.0.0] C:\Users\pvila\.gradle\caches\transforms-2\files-2.1\2c45117a36ab66773ae499e465f251bc\drawerlayout-1.0.0\AndroidManifest.xml:20:5-44
MERGED from [androidx.viewpager:viewpager:1.0.0] C:\Users\pvila\.gradle\caches\transforms-2\files-2.1\8cf7479617f1b96587d6398f04804039\viewpager-1.0.0\AndroidManifest.xml:20:5-44
MERGED from [androidx.viewpager:viewpager:1.0.0] C:\Users\pvila\.gradle\caches\transforms-2\files-2.1\8cf7479617f1b96587d6398f04804039\viewpager-1.0.0\AndroidManifest.xml:20:5-44
MERGED from [androidx.loader:loader:1.0.0] C:\Users\pvila\.gradle\caches\transforms-2\files-2.1\d561ea83753ab00d538bec1084086a22\loader-1.0.0\AndroidManifest.xml:20:5-44
MERGED from [androidx.loader:loader:1.0.0] C:\Users\pvila\.gradle\caches\transforms-2\files-2.1\d561ea83753ab00d538bec1084086a22\loader-1.0.0\AndroidManifest.xml:20:5-44
MERGED from [androidx.activity:activity:1.2.4] C:\Users\pvila\.gradle\caches\transforms-2\files-2.1\2483b59a82b1b224dca819df77375a28\jetified-activity-1.2.4\AndroidManifest.xml:20:5-22:41
MERGED from [androidx.activity:activity:1.2.4] C:\Users\pvila\.gradle\caches\transforms-2\files-2.1\2483b59a82b1b224dca819df77375a28\jetified-activity-1.2.4\AndroidManifest.xml:20:5-22:41
MERGED from [androidx.vectordrawable:vectordrawable-animated:1.1.0] C:\Users\pvila\.gradle\caches\transforms-2\files-2.1\ca05cd440190956aef2842a3774294b7\vectordrawable-animated-1.1.0\AndroidManifest.xml:20:5-22:41
MERGED from [androidx.vectordrawable:vectordrawable-animated:1.1.0] C:\Users\pvila\.gradle\caches\transforms-2\files-2.1\ca05cd440190956aef2842a3774294b7\vectordrawable-animated-1.1.0\AndroidManifest.xml:20:5-22:41
MERGED from [androidx.vectordrawable:vectordrawable:1.1.0] C:\Users\pvila\.gradle\caches\transforms-2\files-2.1\75628619484d51af69f29d0c5526e285\vectordrawable-1.1.0\AndroidManifest.xml:20:5-22:41
MERGED from [androidx.vectordrawable:vectordrawable:1.1.0] C:\Users\pvila\.gradle\caches\transforms-2\files-2.1\75628619484d51af69f29d0c5526e285\vectordrawable-1.1.0\AndroidManifest.xml:20:5-22:41
MERGED from [androidx.customview:customview:1.0.0] C:\Users\pvila\.gradle\caches\transforms-2\files-2.1\4e8b314d2310c9ad44eb5e690dbcbd79\customview-1.0.0\AndroidManifest.xml:20:5-44
MERGED from [androidx.customview:customview:1.0.0] C:\Users\pvila\.gradle\caches\transforms-2\files-2.1\4e8b314d2310c9ad44eb5e690dbcbd79\customview-1.0.0\AndroidManifest.xml:20:5-44
MERGED from [androidx.core:core:1.6.0] C:\Users\pvila\.gradle\caches\transforms-2\files-2.1\fcd6aa6b9a0a96f26803b0c5f1e42418\core-1.6.0\AndroidManifest.xml:20:5-22:41
MERGED from [androidx.core:core:1.6.0] C:\Users\pvila\.gradle\caches\transforms-2\files-2.1\fcd6aa6b9a0a96f26803b0c5f1e42418\core-1.6.0\AndroidManifest.xml:20:5-22:41
MERGED from [androidx.versionedparcelable:versionedparcelable:1.1.1] C:\Users\pvila\.gradle\caches\transforms-2\files-2.1\9828ed1e3ec07785d8d4bdd619c932ce\versionedparcelable-1.1.1\AndroidManifest.xml:20:5-22:41
MERGED from [androidx.versionedparcelable:versionedparcelable:1.1.1] C:\Users\pvila\.gradle\caches\transforms-2\files-2.1\9828ed1e3ec07785d8d4bdd619c932ce\versionedparcelable-1.1.1\AndroidManifest.xml:20:5-22:41
MERGED from [androidx.interpolator:interpolator:1.0.0] C:\Users\pvila\.gradle\caches\transforms-2\files-2.1\610228d7808e3588bb438081c94361e5\interpolator-1.0.0\AndroidManifest.xml:20:5-44
MERGED from [androidx.interpolator:interpolator:1.0.0] C:\Users\pvila\.gradle\caches\transforms-2\files-2.1\610228d7808e3588bb438081c94361e5\interpolator-1.0.0\AndroidManifest.xml:20:5-44
MERGED from [androidx.cursoradapter:cursoradapter:1.0.0] C:\Users\pvila\.gradle\caches\transforms-2\files-2.1\83764601400ef2929de089bae00b71a6\cursoradapter-1.0.0\AndroidManifest.xml:20:5-44
MERGED from [androidx.cursoradapter:cursoradapter:1.0.0] C:\Users\pvila\.gradle\caches\transforms-2\files-2.1\83764601400ef2929de089bae00b71a6\cursoradapter-1.0.0\AndroidManifest.xml:20:5-44
MERGED from [androidx.startup:startup-runtime:1.0.0] C:\Users\pvila\.gradle\caches\transforms-2\files-2.1\9701df95eee5c0b746efb5e675895a92\jetified-startup-runtime-1.0.0\AndroidManifest.xml:21:5-23:41
MERGED from [androidx.startup:startup-runtime:1.0.0] C:\Users\pvila\.gradle\caches\transforms-2\files-2.1\9701df95eee5c0b746efb5e675895a92\jetified-startup-runtime-1.0.0\AndroidManifest.xml:21:5-23:41
MERGED from [androidx.room:room-runtime:2.2.5] C:\Users\pvila\.gradle\caches\transforms-2\files-2.1\ea5ccf729e19bc8d9f7e9658551e5b18\room-runtime-2.2.5\AndroidManifest.xml:20:5-22:41
MERGED from [androidx.room:room-runtime:2.2.5] C:\Users\pvila\.gradle\caches\transforms-2\files-2.1\ea5ccf729e19bc8d9f7e9658551e5b18\room-runtime-2.2.5\AndroidManifest.xml:20:5-22:41
MERGED from [androidx.sqlite:sqlite-framework:2.1.0] C:\Users\pvila\.gradle\caches\transforms-2\files-2.1\d970436968c33de13b700e52d0242a9f\sqlite-framework-2.1.0\AndroidManifest.xml:20:5-22:41
MERGED from [androidx.sqlite:sqlite-framework:2.1.0] C:\Users\pvila\.gradle\caches\transforms-2\files-2.1\d970436968c33de13b700e52d0242a9f\sqlite-framework-2.1.0\AndroidManifest.xml:20:5-22:41
MERGED from [androidx.sqlite:sqlite:2.1.0] C:\Users\pvila\.gradle\caches\transforms-2\files-2.1\7af9b4236a10fcaf2329c4a4d8e6a1e0\sqlite-2.1.0\AndroidManifest.xml:20:5-22:41
MERGED from [androidx.sqlite:sqlite:2.1.0] C:\Users\pvila\.gradle\caches\transforms-2\files-2.1\7af9b4236a10fcaf2329c4a4d8e6a1e0\sqlite-2.1.0\AndroidManifest.xml:20:5-22:41
MERGED from [androidx.lifecycle:lifecycle-viewmodel-savedstate:2.3.1] C:\Users\pvila\.gradle\caches\transforms-2\files-2.1\6e25961dbe396655584af64c5adcd981\jetified-lifecycle-viewmodel-savedstate-2.3.1\AndroidManifest.xml:20:5-22:41
MERGED from [androidx.lifecycle:lifecycle-viewmodel-savedstate:2.3.1] C:\Users\pvila\.gradle\caches\transforms-2\files-2.1\6e25961dbe396655584af64c5adcd981\jetified-lifecycle-viewmodel-savedstate-2.3.1\AndroidManifest.xml:20:5-22:41
MERGED from [androidx.lifecycle:lifecycle-viewmodel:2.3.1] C:\Users\pvila\.gradle\caches\transforms-2\files-2.1\46d4aad6aa051e02e06fb8b73fdb764f\lifecycle-viewmodel-2.3.1\AndroidManifest.xml:20:5-22:41
MERGED from [androidx.lifecycle:lifecycle-viewmodel:2.3.1] C:\Users\pvila\.gradle\caches\transforms-2\files-2.1\46d4aad6aa051e02e06fb8b73fdb764f\lifecycle-viewmodel-2.3.1\AndroidManifest.xml:20:5-22:41
MERGED from [androidx.savedstate:savedstate:1.1.0] C:\Users\pvila\.gradle\caches\transforms-2\files-2.1\2d6c2c08d327df7cb26ecaf35dd4a5bf\jetified-savedstate-1.1.0\AndroidManifest.xml:20:5-22:41
MERGED from [androidx.savedstate:savedstate:1.1.0] C:\Users\pvila\.gradle\caches\transforms-2\files-2.1\2d6c2c08d327df7cb26ecaf35dd4a5bf\jetified-savedstate-1.1.0\AndroidManifest.xml:20:5-22:41
MERGED from [androidx.lifecycle:lifecycle-livedata:2.1.0] C:\Users\pvila\.gradle\caches\transforms-2\files-2.1\7fae335d84b008d030443482321ee4cd\lifecycle-livedata-2.1.0\AndroidManifest.xml:20:5-44
MERGED from [androidx.lifecycle:lifecycle-livedata:2.1.0] C:\Users\pvila\.gradle\caches\transforms-2\files-2.1\7fae335d84b008d030443482321ee4cd\lifecycle-livedata-2.1.0\AndroidManifest.xml:20:5-44
MERGED from [androidx.lifecycle:lifecycle-livedata-core:2.3.1] C:\Users\pvila\.gradle\caches\transforms-2\files-2.1\2e36748bf9d97ef0f96f160e01eb3ae3\lifecycle-livedata-core-2.3.1\AndroidManifest.xml:20:5-22:41
MERGED from [androidx.lifecycle:lifecycle-livedata-core:2.3.1] C:\Users\pvila\.gradle\caches\transforms-2\files-2.1\2e36748bf9d97ef0f96f160e01eb3ae3\lifecycle-livedata-core-2.3.1\AndroidManifest.xml:20:5-22:41
MERGED from [androidx.lifecycle:lifecycle-service:2.1.0] C:\Users\pvila\.gradle\caches\transforms-2\files-2.1\6920bbf5ccf3835dfa7d43129a7a6aad\jetified-lifecycle-service-2.1.0\AndroidManifest.xml:20:5-44
MERGED from [androidx.lifecycle:lifecycle-service:2.1.0] C:\Users\pvila\.gradle\caches\transforms-2\files-2.1\6920bbf5ccf3835dfa7d43129a7a6aad\jetified-lifecycle-service-2.1.0\AndroidManifest.xml:20:5-44
MERGED from [androidx.lifecycle:lifecycle-runtime:2.3.1] C:\Users\pvila\.gradle\caches\transforms-2\files-2.1\47386d1e2ec8db6b23834b9ecf7038ca\lifecycle-runtime-2.3.1\AndroidManifest.xml:20:5-22:41
MERGED from [androidx.lifecycle:lifecycle-runtime:2.3.1] C:\Users\pvila\.gradle\caches\transforms-2\files-2.1\47386d1e2ec8db6b23834b9ecf7038ca\lifecycle-runtime-2.3.1\AndroidManifest.xml:20:5-22:41
MERGED from [androidx.arch.core:core-runtime:2.1.0] C:\Users\pvila\.gradle\caches\transforms-2\files-2.1\33271547215b88a86438290c6502b1aa\core-runtime-2.1.0\AndroidManifest.xml:20:5-22:41
MERGED from [androidx.arch.core:core-runtime:2.1.0] C:\Users\pvila\.gradle\caches\transforms-2\files-2.1\33271547215b88a86438290c6502b1aa\core-runtime-2.1.0\AndroidManifest.xml:20:5-22:41
MERGED from [androidx.tracing:tracing:1.0.0] C:\Users\pvila\.gradle\caches\transforms-2\files-2.1\8f86242995a9f851742ad832b6c5acb6\jetified-tracing-1.0.0\AndroidManifest.xml:20:5-22:41
MERGED from [androidx.tracing:tracing:1.0.0] C:\Users\pvila\.gradle\caches\transforms-2\files-2.1\8f86242995a9f851742ad832b6c5acb6\jetified-tracing-1.0.0\AndroidManifest.xml:20:5-22:41
MERGED from [androidx.annotation:annotation-experimental:1.1.0] C:\Users\pvila\.gradle\caches\transforms-2\files-2.1\511d2ae514d83f018209766dde7294ed\jetified-annotation-experimental-1.1.0\AndroidManifest.xml:20:5-22:41
MERGED from [androidx.annotation:annotation-experimental:1.1.0] C:\Users\pvila\.gradle\caches\transforms-2\files-2.1\511d2ae514d83f018209766dde7294ed\jetified-annotation-experimental-1.1.0\AndroidManifest.xml:20:5-22:41
INJECTED from C:\Users\pvila\StudioProjects\buddhawordFlutLab\android\app\src\main\AndroidManifest.xml
INJECTED from C:\Users\pvila\StudioProjects\buddhawordFlutLab\android\app\src\main\AndroidManifest.xml
	android:targetSdkVersion
		INJECTED from C:\Users\pvila\StudioProjects\buddhawordFlutLab\android\app\src\main\AndroidManifest.xml
		ADDED from C:\Users\pvila\StudioProjects\buddhawordFlutLab\android\app\src\main\AndroidManifest.xml
		INJECTED from C:\Users\pvila\StudioProjects\buddhawordFlutLab\android\app\src\main\AndroidManifest.xml
	android:minSdkVersion
		INJECTED from C:\Users\pvila\StudioProjects\buddhawordFlutLab\android\app\src\main\AndroidManifest.xml
		ADDED from C:\Users\pvila\StudioProjects\buddhawordFlutLab\android\app\src\main\AndroidManifest.xml
		INJECTED from C:\Users\pvila\StudioProjects\buddhawordFlutLab\android\app\src\main\AndroidManifest.xml
queries
ADDED from [:flutter_inappwebview] C:\Users\pvila\StudioProjects\buddhawordFlutLab\build\flutter_inappwebview\intermediates\library_manifest\release\AndroidManifest.xml:7:5-11:15
MERGED from [:flutter_downloader] C:\Users\pvila\StudioProjects\buddhawordFlutLab\build\flutter_downloader\intermediates\library_manifest\release\AndroidManifest.xml:8:5-12:15
MERGED from [:flutter_downloader] C:\Users\pvila\StudioProjects\buddhawordFlutLab\build\flutter_downloader\intermediates\library_manifest\release\AndroidManifest.xml:8:5-12:15
intent#action:name:android.support.customtabs.action.CustomTabsService
ADDED from [:flutter_inappwebview] C:\Users\pvila\StudioProjects\buddhawordFlutLab\build\flutter_inappwebview\intermediates\library_manifest\release\AndroidManifest.xml:8:9-10:18
action#android.support.customtabs.action.CustomTabsService
ADDED from [:flutter_inappwebview] C:\Users\pvila\StudioProjects\buddhawordFlutLab\build\flutter_inappwebview\intermediates\library_manifest\release\AndroidManifest.xml:9:13-90
	android:name
		ADDED from [:flutter_inappwebview] C:\Users\pvila\StudioProjects\buddhawordFlutLab\build\flutter_inappwebview\intermediates\library_manifest\release\AndroidManifest.xml:9:21-87
activity#com.pichillilorenzo.flutter_inappwebview.in_app_browser.InAppBrowserActivity
ADDED from [:flutter_inappwebview] C:\Users\pvila\StudioProjects\buddhawordFlutLab\build\flutter_inappwebview\intermediates\library_manifest\release\AndroidManifest.xml:14:9-17:47
	android:configChanges
		ADDED from [:flutter_inappwebview] C:\Users\pvila\StudioProjects\buddhawordFlutLab\build\flutter_inappwebview\intermediates\library_manifest\release\AndroidManifest.xml:16:13-137
	android:theme
		ADDED from [:flutter_inappwebview] C:\Users\pvila\StudioProjects\buddhawordFlutLab\build\flutter_inappwebview\intermediates\library_manifest\release\AndroidManifest.xml:17:13-44
	android:name
		ADDED from [:flutter_inappwebview] C:\Users\pvila\StudioProjects\buddhawordFlutLab\build\flutter_inappwebview\intermediates\library_manifest\release\AndroidManifest.xml:15:13-104
activity#com.pichillilorenzo.flutter_inappwebview.chrome_custom_tabs.ChromeCustomTabsActivity
ADDED from [:flutter_inappwebview] C:\Users\pvila\StudioProjects\buddhawordFlutLab\build\flutter_inappwebview\intermediates\library_manifest\release\AndroidManifest.xml:18:9-20:55
	android:theme
		ADDED from [:flutter_inappwebview] C:\Users\pvila\StudioProjects\buddhawordFlutLab\build\flutter_inappwebview\intermediates\library_manifest\release\AndroidManifest.xml:20:13-52
	android:name
		ADDED from [:flutter_inappwebview] C:\Users\pvila\StudioProjects\buddhawordFlutLab\build\flutter_inappwebview\intermediates\library_manifest\release\AndroidManifest.xml:19:13-112
receiver#com.pichillilorenzo.flutter_inappwebview.chrome_custom_tabs.ActionBroadcastReceiver
ADDED from [:flutter_inappwebview] C:\Users\pvila\StudioProjects\buddhawordFlutLab\build\flutter_inappwebview\intermediates\library_manifest\release\AndroidManifest.xml:22:9-120
	android:name
		ADDED from [:flutter_inappwebview] C:\Users\pvila\StudioProjects\buddhawordFlutLab\build\flutter_inappwebview\intermediates\library_manifest\release\AndroidManifest.xml:22:19-117
meta-data#io.flutter.embedded_views_preview
ADDED from [:flutter_inappwebview] C:\Users\pvila\StudioProjects\buddhawordFlutLab\build\flutter_inappwebview\intermediates\library_manifest\release\AndroidManifest.xml:24:9-26:36
	android:value
		ADDED from [:flutter_inappwebview] C:\Users\pvila\StudioProjects\buddhawordFlutLab\build\flutter_inappwebview\intermediates\library_manifest\release\AndroidManifest.xml:26:13-33
	android:name
		ADDED from [:flutter_inappwebview] C:\Users\pvila\StudioProjects\buddhawordFlutLab\build\flutter_inappwebview\intermediates\library_manifest\release\AndroidManifest.xml:25:13-61
intent#action:name:android.intent.action.VIEW
ADDED from [:flutter_downloader] C:\Users\pvila\StudioProjects\buddhawordFlutLab\build\flutter_downloader\intermediates\library_manifest\release\AndroidManifest.xml:9:9-11:18
action#android.intent.action.VIEW
ADDED from [:flutter_downloader] C:\Users\pvila\StudioProjects\buddhawordFlutLab\build\flutter_downloader\intermediates\library_manifest\release\AndroidManifest.xml:10:13-65
	android:name
		ADDED from [:flutter_downloader] C:\Users\pvila\StudioProjects\buddhawordFlutLab\build\flutter_downloader\intermediates\library_manifest\release\AndroidManifest.xml:10:21-62
uses-permission#android.permission.RECEIVE_BOOT_COMPLETED
ADDED from [androidx.work:work-runtime:2.7.0-rc01] C:\Users\pvila\.gradle\caches\transforms-2\files-2.1\2aac65ef0746e64ae3f699b917525350\work-runtime-2.7.0-rc01\AndroidManifest.xml:27:5-81
	android:name
		ADDED from [androidx.work:work-runtime:2.7.0-rc01] C:\Users\pvila\.gradle\caches\transforms-2\files-2.1\2aac65ef0746e64ae3f699b917525350\work-runtime-2.7.0-rc01\AndroidManifest.xml:27:22-78
uses-permission#android.permission.FOREGROUND_SERVICE
ADDED from [androidx.work:work-runtime:2.7.0-rc01] C:\Users\pvila\.gradle\caches\transforms-2\files-2.1\2aac65ef0746e64ae3f699b917525350\work-runtime-2.7.0-rc01\AndroidManifest.xml:28:5-77
	android:name
		ADDED from [androidx.work:work-runtime:2.7.0-rc01] C:\Users\pvila\.gradle\caches\transforms-2\files-2.1\2aac65ef0746e64ae3f699b917525350\work-runtime-2.7.0-rc01\AndroidManifest.xml:28:22-74
provider#androidx.startup.InitializationProvider
ADDED from [androidx.work:work-runtime:2.7.0-rc01] C:\Users\pvila\.gradle\caches\transforms-2\files-2.1\2aac65ef0746e64ae3f699b917525350\work-runtime-2.7.0-rc01\AndroidManifest.xml:31:9-39:20
MERGED from [androidx.startup:startup-runtime:1.0.0] C:\Users\pvila\.gradle\caches\transforms-2\files-2.1\9701df95eee5c0b746efb5e675895a92\jetified-startup-runtime-1.0.0\AndroidManifest.xml:26:9-30:34
MERGED from [androidx.startup:startup-runtime:1.0.0] C:\Users\pvila\.gradle\caches\transforms-2\files-2.1\9701df95eee5c0b746efb5e675895a92\jetified-startup-runtime-1.0.0\AndroidManifest.xml:26:9-30:34
	tools:node
		ADDED from [androidx.work:work-runtime:2.7.0-rc01] C:\Users\pvila\.gradle\caches\transforms-2\files-2.1\2aac65ef0746e64ae3f699b917525350\work-runtime-2.7.0-rc01\AndroidManifest.xml:35:13-31
	android:authorities
		ADDED from [androidx.work:work-runtime:2.7.0-rc01] C:\Users\pvila\.gradle\caches\transforms-2\files-2.1\2aac65ef0746e64ae3f699b917525350\work-runtime-2.7.0-rc01\AndroidManifest.xml:33:13-68
	android:exported
		ADDED from [androidx.work:work-runtime:2.7.0-rc01] C:\Users\pvila\.gradle\caches\transforms-2\files-2.1\2aac65ef0746e64ae3f699b917525350\work-runtime-2.7.0-rc01\AndroidManifest.xml:34:13-37
	android:name
		ADDED from [androidx.work:work-runtime:2.7.0-rc01] C:\Users\pvila\.gradle\caches\transforms-2\files-2.1\2aac65ef0746e64ae3f699b917525350\work-runtime-2.7.0-rc01\AndroidManifest.xml:32:13-67
meta-data#androidx.work.WorkManagerInitializer
ADDED from [androidx.work:work-runtime:2.7.0-rc01] C:\Users\pvila\.gradle\caches\transforms-2\files-2.1\2aac65ef0746e64ae3f699b917525350\work-runtime-2.7.0-rc01\AndroidManifest.xml:36:13-38:52
	android:value
		ADDED from [androidx.work:work-runtime:2.7.0-rc01] C:\Users\pvila\.gradle\caches\transforms-2\files-2.1\2aac65ef0746e64ae3f699b917525350\work-runtime-2.7.0-rc01\AndroidManifest.xml:38:17-49
	android:name
		ADDED from [androidx.work:work-runtime:2.7.0-rc01] C:\Users\pvila\.gradle\caches\transforms-2\files-2.1\2aac65ef0746e64ae3f699b917525350\work-runtime-2.7.0-rc01\AndroidManifest.xml:37:17-68
service#androidx.work.impl.background.systemalarm.SystemAlarmService
ADDED from [androidx.work:work-runtime:2.7.0-rc01] C:\Users\pvila\.gradle\caches\transforms-2\files-2.1\2aac65ef0746e64ae3f699b917525350\work-runtime-2.7.0-rc01\AndroidManifest.xml:41:9-46:35
	android:enabled
		ADDED from [androidx.work:work-runtime:2.7.0-rc01] C:\Users\pvila\.gradle\caches\transforms-2\files-2.1\2aac65ef0746e64ae3f699b917525350\work-runtime-2.7.0-rc01\AndroidManifest.xml:44:13-72
	android:exported
		ADDED from [androidx.work:work-runtime:2.7.0-rc01] C:\Users\pvila\.gradle\caches\transforms-2\files-2.1\2aac65ef0746e64ae3f699b917525350\work-runtime-2.7.0-rc01\AndroidManifest.xml:45:13-37
	tools:targetApi
		ADDED from [androidx.work:work-runtime:2.7.0-rc01] C:\Users\pvila\.gradle\caches\transforms-2\files-2.1\2aac65ef0746e64ae3f699b917525350\work-runtime-2.7.0-rc01\AndroidManifest.xml:46:13-32
	android:directBootAware
		ADDED from [androidx.work:work-runtime:2.7.0-rc01] C:\Users\pvila\.gradle\caches\transforms-2\files-2.1\2aac65ef0746e64ae3f699b917525350\work-runtime-2.7.0-rc01\AndroidManifest.xml:43:13-44
	android:name
		ADDED from [androidx.work:work-runtime:2.7.0-rc01] C:\Users\pvila\.gradle\caches\transforms-2\files-2.1\2aac65ef0746e64ae3f699b917525350\work-runtime-2.7.0-rc01\AndroidManifest.xml:42:13-88
service#androidx.work.impl.background.systemjob.SystemJobService
ADDED from [androidx.work:work-runtime:2.7.0-rc01] C:\Users\pvila\.gradle\caches\transforms-2\files-2.1\2aac65ef0746e64ae3f699b917525350\work-runtime-2.7.0-rc01\AndroidManifest.xml:47:9-53:35
	android:enabled
		ADDED from [androidx.work:work-runtime:2.7.0-rc01] C:\Users\pvila\.gradle\caches\transforms-2\files-2.1\2aac65ef0746e64ae3f699b917525350\work-runtime-2.7.0-rc01\AndroidManifest.xml:50:13-70
	android:exported
		ADDED from [androidx.work:work-runtime:2.7.0-rc01] C:\Users\pvila\.gradle\caches\transforms-2\files-2.1\2aac65ef0746e64ae3f699b917525350\work-runtime-2.7.0-rc01\AndroidManifest.xml:51:13-36
	android:permission
		ADDED from [androidx.work:work-runtime:2.7.0-rc01] C:\Users\pvila\.gradle\caches\transforms-2\files-2.1\2aac65ef0746e64ae3f699b917525350\work-runtime-2.7.0-rc01\AndroidManifest.xml:52:13-69
	tools:targetApi
		ADDED from [androidx.work:work-runtime:2.7.0-rc01] C:\Users\pvila\.gradle\caches\transforms-2\files-2.1\2aac65ef0746e64ae3f699b917525350\work-runtime-2.7.0-rc01\AndroidManifest.xml:53:13-32
	android:directBootAware
		ADDED from [androidx.work:work-runtime:2.7.0-rc01] C:\Users\pvila\.gradle\caches\transforms-2\files-2.1\2aac65ef0746e64ae3f699b917525350\work-runtime-2.7.0-rc01\AndroidManifest.xml:49:13-44
	android:name
		ADDED from [androidx.work:work-runtime:2.7.0-rc01] C:\Users\pvila\.gradle\caches\transforms-2\files-2.1\2aac65ef0746e64ae3f699b917525350\work-runtime-2.7.0-rc01\AndroidManifest.xml:48:13-84
service#androidx.work.impl.foreground.SystemForegroundService
ADDED from [androidx.work:work-runtime:2.7.0-rc01] C:\Users\pvila\.gradle\caches\transforms-2\files-2.1\2aac65ef0746e64ae3f699b917525350\work-runtime-2.7.0-rc01\AndroidManifest.xml:54:9-59:35
	android:enabled
		ADDED from [androidx.work:work-runtime:2.7.0-rc01] C:\Users\pvila\.gradle\caches\transforms-2\files-2.1\2aac65ef0746e64ae3f699b917525350\work-runtime-2.7.0-rc01\AndroidManifest.xml:57:13-77
	android:exported
		ADDED from [androidx.work:work-runtime:2.7.0-rc01] C:\Users\pvila\.gradle\caches\transforms-2\files-2.1\2aac65ef0746e64ae3f699b917525350\work-runtime-2.7.0-rc01\AndroidManifest.xml:58:13-37
	tools:targetApi
		ADDED from [androidx.work:work-runtime:2.7.0-rc01] C:\Users\pvila\.gradle\caches\transforms-2\files-2.1\2aac65ef0746e64ae3f699b917525350\work-runtime-2.7.0-rc01\AndroidManifest.xml:59:13-32
	android:directBootAware
		ADDED from [androidx.work:work-runtime:2.7.0-rc01] C:\Users\pvila\.gradle\caches\transforms-2\files-2.1\2aac65ef0746e64ae3f699b917525350\work-runtime-2.7.0-rc01\AndroidManifest.xml:56:13-44
	android:name
		ADDED from [androidx.work:work-runtime:2.7.0-rc01] C:\Users\pvila\.gradle\caches\transforms-2\files-2.1\2aac65ef0746e64ae3f699b917525350\work-runtime-2.7.0-rc01\AndroidManifest.xml:55:13-81
receiver#androidx.work.impl.utils.ForceStopRunnable$BroadcastReceiver
ADDED from [androidx.work:work-runtime:2.7.0-rc01] C:\Users\pvila\.gradle\caches\transforms-2\files-2.1\2aac65ef0746e64ae3f699b917525350\work-runtime-2.7.0-rc01\AndroidManifest.xml:61:9-66:35
	android:enabled
		ADDED from [androidx.work:work-runtime:2.7.0-rc01] C:\Users\pvila\.gradle\caches\transforms-2\files-2.1\2aac65ef0746e64ae3f699b917525350\work-runtime-2.7.0-rc01\AndroidManifest.xml:64:13-35
	android:exported
		ADDED from [androidx.work:work-runtime:2.7.0-rc01] C:\Users\pvila\.gradle\caches\transforms-2\files-2.1\2aac65ef0746e64ae3f699b917525350\work-runtime-2.7.0-rc01\AndroidManifest.xml:65:13-37
	tools:targetApi
		ADDED from [androidx.work:work-runtime:2.7.0-rc01] C:\Users\pvila\.gradle\caches\transforms-2\files-2.1\2aac65ef0746e64ae3f699b917525350\work-runtime-2.7.0-rc01\AndroidManifest.xml:66:13-32
	android:directBootAware
		ADDED from [androidx.work:work-runtime:2.7.0-rc01] C:\Users\pvila\.gradle\caches\transforms-2\files-2.1\2aac65ef0746e64ae3f699b917525350\work-runtime-2.7.0-rc01\AndroidManifest.xml:63:13-44
	android:name
		ADDED from [androidx.work:work-runtime:2.7.0-rc01] C:\Users\pvila\.gradle\caches\transforms-2\files-2.1\2aac65ef0746e64ae3f699b917525350\work-runtime-2.7.0-rc01\AndroidManifest.xml:62:13-88
receiver#androidx.work.impl.background.systemalarm.ConstraintProxy$BatteryChargingProxy
ADDED from [androidx.work:work-runtime:2.7.0-rc01] C:\Users\pvila\.gradle\caches\transforms-2\files-2.1\2aac65ef0746e64ae3f699b917525350\work-runtime-2.7.0-rc01\AndroidManifest.xml:67:9-77:20
	android:enabled
		ADDED from [androidx.work:work-runtime:2.7.0-rc01] C:\Users\pvila\.gradle\caches\transforms-2\files-2.1\2aac65ef0746e64ae3f699b917525350\work-runtime-2.7.0-rc01\AndroidManifest.xml:70:13-36
	android:exported
		ADDED from [androidx.work:work-runtime:2.7.0-rc01] C:\Users\pvila\.gradle\caches\transforms-2\files-2.1\2aac65ef0746e64ae3f699b917525350\work-runtime-2.7.0-rc01\AndroidManifest.xml:71:13-37
	tools:targetApi
		ADDED from [androidx.work:work-runtime:2.7.0-rc01] C:\Users\pvila\.gradle\caches\transforms-2\files-2.1\2aac65ef0746e64ae3f699b917525350\work-runtime-2.7.0-rc01\AndroidManifest.xml:72:13-32
	android:directBootAware
		ADDED from [androidx.work:work-runtime:2.7.0-rc01] C:\Users\pvila\.gradle\caches\transforms-2\files-2.1\2aac65ef0746e64ae3f699b917525350\work-runtime-2.7.0-rc01\AndroidManifest.xml:69:13-44
	android:name
		ADDED from [androidx.work:work-runtime:2.7.0-rc01] C:\Users\pvila\.gradle\caches\transforms-2\files-2.1\2aac65ef0746e64ae3f699b917525350\work-runtime-2.7.0-rc01\AndroidManifest.xml:68:13-106
intent-filter#action:name:android.intent.action.ACTION_POWER_CONNECTED+action:name:android.intent.action.ACTION_POWER_DISCONNECTED
ADDED from [androidx.work:work-runtime:2.7.0-rc01] C:\Users\pvila\.gradle\caches\transforms-2\files-2.1\2aac65ef0746e64ae3f699b917525350\work-runtime-2.7.0-rc01\AndroidManifest.xml:73:13-76:29
action#android.intent.action.ACTION_POWER_CONNECTED
ADDED from [androidx.work:work-runtime:2.7.0-rc01] C:\Users\pvila\.gradle\caches\transforms-2\files-2.1\2aac65ef0746e64ae3f699b917525350\work-runtime-2.7.0-rc01\AndroidManifest.xml:74:17-87
	android:name
		ADDED from [androidx.work:work-runtime:2.7.0-rc01] C:\Users\pvila\.gradle\caches\transforms-2\files-2.1\2aac65ef0746e64ae3f699b917525350\work-runtime-2.7.0-rc01\AndroidManifest.xml:74:25-84
action#android.intent.action.ACTION_POWER_DISCONNECTED
ADDED from [androidx.work:work-runtime:2.7.0-rc01] C:\Users\pvila\.gradle\caches\transforms-2\files-2.1\2aac65ef0746e64ae3f699b917525350\work-runtime-2.7.0-rc01\AndroidManifest.xml:75:17-90
	android:name
		ADDED from [androidx.work:work-runtime:2.7.0-rc01] C:\Users\pvila\.gradle\caches\transforms-2\files-2.1\2aac65ef0746e64ae3f699b917525350\work-runtime-2.7.0-rc01\AndroidManifest.xml:75:25-87
receiver#androidx.work.impl.background.systemalarm.ConstraintProxy$BatteryNotLowProxy
ADDED from [androidx.work:work-runtime:2.7.0-rc01] C:\Users\pvila\.gradle\caches\transforms-2\files-2.1\2aac65ef0746e64ae3f699b917525350\work-runtime-2.7.0-rc01\AndroidManifest.xml:78:9-88:20
	android:enabled
		ADDED from [androidx.work:work-runtime:2.7.0-rc01] C:\Users\pvila\.gradle\caches\transforms-2\files-2.1\2aac65ef0746e64ae3f699b917525350\work-runtime-2.7.0-rc01\AndroidManifest.xml:81:13-36
	android:exported
		ADDED from [androidx.work:work-runtime:2.7.0-rc01] C:\Users\pvila\.gradle\caches\transforms-2\files-2.1\2aac65ef0746e64ae3f699b917525350\work-runtime-2.7.0-rc01\AndroidManifest.xml:82:13-37
	tools:targetApi
		ADDED from [androidx.work:work-runtime:2.7.0-rc01] C:\Users\pvila\.gradle\caches\transforms-2\files-2.1\2aac65ef0746e64ae3f699b917525350\work-runtime-2.7.0-rc01\AndroidManifest.xml:83:13-32
	android:directBootAware
		ADDED from [androidx.work:work-runtime:2.7.0-rc01] C:\Users\pvila\.gradle\caches\transforms-2\files-2.1\2aac65ef0746e64ae3f699b917525350\work-runtime-2.7.0-rc01\AndroidManifest.xml:80:13-44
	android:name
		ADDED from [androidx.work:work-runtime:2.7.0-rc01] C:\Users\pvila\.gradle\caches\transforms-2\files-2.1\2aac65ef0746e64ae3f699b917525350\work-runtime-2.7.0-rc01\AndroidManifest.xml:79:13-104
intent-filter#action:name:android.intent.action.BATTERY_LOW+action:name:android.intent.action.BATTERY_OKAY
ADDED from [androidx.work:work-runtime:2.7.0-rc01] C:\Users\pvila\.gradle\caches\transforms-2\files-2.1\2aac65ef0746e64ae3f699b917525350\work-runtime-2.7.0-rc01\AndroidManifest.xml:84:13-87:29
action#android.intent.action.BATTERY_OKAY
ADDED from [androidx.work:work-runtime:2.7.0-rc01] C:\Users\pvila\.gradle\caches\transforms-2\files-2.1\2aac65ef0746e64ae3f699b917525350\work-runtime-2.7.0-rc01\AndroidManifest.xml:85:17-77
	android:name
		ADDED from [androidx.work:work-runtime:2.7.0-rc01] C:\Users\pvila\.gradle\caches\transforms-2\files-2.1\2aac65ef0746e64ae3f699b917525350\work-runtime-2.7.0-rc01\AndroidManifest.xml:85:25-74
action#android.intent.action.BATTERY_LOW
ADDED from [androidx.work:work-runtime:2.7.0-rc01] C:\Users\pvila\.gradle\caches\transforms-2\files-2.1\2aac65ef0746e64ae3f699b917525350\work-runtime-2.7.0-rc01\AndroidManifest.xml:86:17-76
	android:name
		ADDED from [androidx.work:work-runtime:2.7.0-rc01] C:\Users\pvila\.gradle\caches\transforms-2\files-2.1\2aac65ef0746e64ae3f699b917525350\work-runtime-2.7.0-rc01\AndroidManifest.xml:86:25-73
receiver#androidx.work.impl.background.systemalarm.ConstraintProxy$StorageNotLowProxy
ADDED from [androidx.work:work-runtime:2.7.0-rc01] C:\Users\pvila\.gradle\caches\transforms-2\files-2.1\2aac65ef0746e64ae3f699b917525350\work-runtime-2.7.0-rc01\AndroidManifest.xml:89:9-99:20
	android:enabled
		ADDED from [androidx.work:work-runtime:2.7.0-rc01] C:\Users\pvila\.gradle\caches\transforms-2\files-2.1\2aac65ef0746e64ae3f699b917525350\work-runtime-2.7.0-rc01\AndroidManifest.xml:92:13-36
	android:exported
		ADDED from [androidx.work:work-runtime:2.7.0-rc01] C:\Users\pvila\.gradle\caches\transforms-2\files-2.1\2aac65ef0746e64ae3f699b917525350\work-runtime-2.7.0-rc01\AndroidManifest.xml:93:13-37
	tools:targetApi
		ADDED from [androidx.work:work-runtime:2.7.0-rc01] C:\Users\pvila\.gradle\caches\transforms-2\files-2.1\2aac65ef0746e64ae3f699b917525350\work-runtime-2.7.0-rc01\AndroidManifest.xml:94:13-32
	android:directBootAware
		ADDED from [androidx.work:work-runtime:2.7.0-rc01] C:\Users\pvila\.gradle\caches\transforms-2\files-2.1\2aac65ef0746e64ae3f699b917525350\work-runtime-2.7.0-rc01\AndroidManifest.xml:91:13-44
	android:name
		ADDED from [androidx.work:work-runtime:2.7.0-rc01] C:\Users\pvila\.gradle\caches\transforms-2\files-2.1\2aac65ef0746e64ae3f699b917525350\work-runtime-2.7.0-rc01\AndroidManifest.xml:90:13-104
intent-filter#action:name:android.intent.action.DEVICE_STORAGE_LOW+action:name:android.intent.action.DEVICE_STORAGE_OK
ADDED from [androidx.work:work-runtime:2.7.0-rc01] C:\Users\pvila\.gradle\caches\transforms-2\files-2.1\2aac65ef0746e64ae3f699b917525350\work-runtime-2.7.0-rc01\AndroidManifest.xml:95:13-98:29
action#android.intent.action.DEVICE_STORAGE_LOW
ADDED from [androidx.work:work-runtime:2.7.0-rc01] C:\Users\pvila\.gradle\caches\transforms-2\files-2.1\2aac65ef0746e64ae3f699b917525350\work-runtime-2.7.0-rc01\AndroidManifest.xml:96:17-83
	android:name
		ADDED from [androidx.work:work-runtime:2.7.0-rc01] C:\Users\pvila\.gradle\caches\transforms-2\files-2.1\2aac65ef0746e64ae3f699b917525350\work-runtime-2.7.0-rc01\AndroidManifest.xml:96:25-80
action#android.intent.action.DEVICE_STORAGE_OK
ADDED from [androidx.work:work-runtime:2.7.0-rc01] C:\Users\pvila\.gradle\caches\transforms-2\files-2.1\2aac65ef0746e64ae3f699b917525350\work-runtime-2.7.0-rc01\AndroidManifest.xml:97:17-82
	android:name
		ADDED from [androidx.work:work-runtime:2.7.0-rc01] C:\Users\pvila\.gradle\caches\transforms-2\files-2.1\2aac65ef0746e64ae3f699b917525350\work-runtime-2.7.0-rc01\AndroidManifest.xml:97:25-79
receiver#androidx.work.impl.background.systemalarm.ConstraintProxy$NetworkStateProxy
ADDED from [androidx.work:work-runtime:2.7.0-rc01] C:\Users\pvila\.gradle\caches\transforms-2\files-2.1\2aac65ef0746e64ae3f699b917525350\work-runtime-2.7.0-rc01\AndroidManifest.xml:100:9-109:20
	android:enabled
		ADDED from [androidx.work:work-runtime:2.7.0-rc01] C:\Users\pvila\.gradle\caches\transforms-2\files-2.1\2aac65ef0746e64ae3f699b917525350\work-runtime-2.7.0-rc01\AndroidManifest.xml:103:13-36
	android:exported
		ADDED from [androidx.work:work-runtime:2.7.0-rc01] C:\Users\pvila\.gradle\caches\transforms-2\files-2.1\2aac65ef0746e64ae3f699b917525350\work-runtime-2.7.0-rc01\AndroidManifest.xml:104:13-37
	tools:targetApi
		ADDED from [androidx.work:work-runtime:2.7.0-rc01] C:\Users\pvila\.gradle\caches\transforms-2\files-2.1\2aac65ef0746e64ae3f699b917525350\work-runtime-2.7.0-rc01\AndroidManifest.xml:105:13-32
	android:directBootAware
		ADDED from [androidx.work:work-runtime:2.7.0-rc01] C:\Users\pvila\.gradle\caches\transforms-2\files-2.1\2aac65ef0746e64ae3f699b917525350\work-runtime-2.7.0-rc01\AndroidManifest.xml:102:13-44
	android:name
		ADDED from [androidx.work:work-runtime:2.7.0-rc01] C:\Users\pvila\.gradle\caches\transforms-2\files-2.1\2aac65ef0746e64ae3f699b917525350\work-runtime-2.7.0-rc01\AndroidManifest.xml:101:13-103
intent-filter#action:name:android.net.conn.CONNECTIVITY_CHANGE
ADDED from [androidx.work:work-runtime:2.7.0-rc01] C:\Users\pvila\.gradle\caches\transforms-2\files-2.1\2aac65ef0746e64ae3f699b917525350\work-runtime-2.7.0-rc01\AndroidManifest.xml:106:13-108:29
action#android.net.conn.CONNECTIVITY_CHANGE
ADDED from [androidx.work:work-runtime:2.7.0-rc01] C:\Users\pvila\.gradle\caches\transforms-2\files-2.1\2aac65ef0746e64ae3f699b917525350\work-runtime-2.7.0-rc01\AndroidManifest.xml:107:17-79
	android:name
		ADDED from [androidx.work:work-runtime:2.7.0-rc01] C:\Users\pvila\.gradle\caches\transforms-2\files-2.1\2aac65ef0746e64ae3f699b917525350\work-runtime-2.7.0-rc01\AndroidManifest.xml:107:25-76
receiver#androidx.work.impl.background.systemalarm.RescheduleReceiver
ADDED from [androidx.work:work-runtime:2.7.0-rc01] C:\Users\pvila\.gradle\caches\transforms-2\files-2.1\2aac65ef0746e64ae3f699b917525350\work-runtime-2.7.0-rc01\AndroidManifest.xml:110:9-121:20
	android:enabled
		ADDED from [androidx.work:work-runtime:2.7.0-rc01] C:\Users\pvila\.gradle\caches\transforms-2\files-2.1\2aac65ef0746e64ae3f699b917525350\work-runtime-2.7.0-rc01\AndroidManifest.xml:113:13-36
	android:exported
		ADDED from [androidx.work:work-runtime:2.7.0-rc01] C:\Users\pvila\.gradle\caches\transforms-2\files-2.1\2aac65ef0746e64ae3f699b917525350\work-runtime-2.7.0-rc01\AndroidManifest.xml:114:13-37
	tools:targetApi
		ADDED from [androidx.work:work-runtime:2.7.0-rc01] C:\Users\pvila\.gradle\caches\transforms-2\files-2.1\2aac65ef0746e64ae3f699b917525350\work-runtime-2.7.0-rc01\AndroidManifest.xml:115:13-32
	android:directBootAware
		ADDED from [androidx.work:work-runtime:2.7.0-rc01] C:\Users\pvila\.gradle\caches\transforms-2\files-2.1\2aac65ef0746e64ae3f699b917525350\work-runtime-2.7.0-rc01\AndroidManifest.xml:112:13-44
	android:name
		ADDED from [androidx.work:work-runtime:2.7.0-rc01] C:\Users\pvila\.gradle\caches\transforms-2\files-2.1\2aac65ef0746e64ae3f699b917525350\work-runtime-2.7.0-rc01\AndroidManifest.xml:111:13-88
intent-filter#action:name:android.intent.action.BOOT_COMPLETED+action:name:android.intent.action.TIMEZONE_CHANGED+action:name:android.intent.action.TIME_SET
ADDED from [androidx.work:work-runtime:2.7.0-rc01] C:\Users\pvila\.gradle\caches\transforms-2\files-2.1\2aac65ef0746e64ae3f699b917525350\work-runtime-2.7.0-rc01\AndroidManifest.xml:116:13-120:29
action#android.intent.action.BOOT_COMPLETED
ADDED from [androidx.work:work-runtime:2.7.0-rc01] C:\Users\pvila\.gradle\caches\transforms-2\files-2.1\2aac65ef0746e64ae3f699b917525350\work-runtime-2.7.0-rc01\AndroidManifest.xml:117:17-79
	android:name
		ADDED from [androidx.work:work-runtime:2.7.0-rc01] C:\Users\pvila\.gradle\caches\transforms-2\files-2.1\2aac65ef0746e64ae3f699b917525350\work-runtime-2.7.0-rc01\AndroidManifest.xml:117:25-76
action#android.intent.action.TIME_SET
ADDED from [androidx.work:work-runtime:2.7.0-rc01] C:\Users\pvila\.gradle\caches\transforms-2\files-2.1\2aac65ef0746e64ae3f699b917525350\work-runtime-2.7.0-rc01\AndroidManifest.xml:118:17-73
	android:name
		ADDED from [androidx.work:work-runtime:2.7.0-rc01] C:\Users\pvila\.gradle\caches\transforms-2\files-2.1\2aac65ef0746e64ae3f699b917525350\work-runtime-2.7.0-rc01\AndroidManifest.xml:118:25-70
action#android.intent.action.TIMEZONE_CHANGED
ADDED from [androidx.work:work-runtime:2.7.0-rc01] C:\Users\pvila\.gradle\caches\transforms-2\files-2.1\2aac65ef0746e64ae3f699b917525350\work-runtime-2.7.0-rc01\AndroidManifest.xml:119:17-81
	android:name
		ADDED from [androidx.work:work-runtime:2.7.0-rc01] C:\Users\pvila\.gradle\caches\transforms-2\files-2.1\2aac65ef0746e64ae3f699b917525350\work-runtime-2.7.0-rc01\AndroidManifest.xml:119:25-78
receiver#androidx.work.impl.background.systemalarm.ConstraintProxyUpdateReceiver
ADDED from [androidx.work:work-runtime:2.7.0-rc01] C:\Users\pvila\.gradle\caches\transforms-2\files-2.1\2aac65ef0746e64ae3f699b917525350\work-runtime-2.7.0-rc01\AndroidManifest.xml:122:9-131:20
	android:enabled
		ADDED from [androidx.work:work-runtime:2.7.0-rc01] C:\Users\pvila\.gradle\caches\transforms-2\files-2.1\2aac65ef0746e64ae3f699b917525350\work-runtime-2.7.0-rc01\AndroidManifest.xml:125:13-72
	android:exported
		ADDED from [androidx.work:work-runtime:2.7.0-rc01] C:\Users\pvila\.gradle\caches\transforms-2\files-2.1\2aac65ef0746e64ae3f699b917525350\work-runtime-2.7.0-rc01\AndroidManifest.xml:126:13-37
	tools:targetApi
		ADDED from [androidx.work:work-runtime:2.7.0-rc01] C:\Users\pvila\.gradle\caches\transforms-2\files-2.1\2aac65ef0746e64ae3f699b917525350\work-runtime-2.7.0-rc01\AndroidManifest.xml:127:13-32
	android:directBootAware
		ADDED from [androidx.work:work-runtime:2.7.0-rc01] C:\Users\pvila\.gradle\caches\transforms-2\files-2.1\2aac65ef0746e64ae3f699b917525350\work-runtime-2.7.0-rc01\AndroidManifest.xml:124:13-44
	android:name
		ADDED from [androidx.work:work-runtime:2.7.0-rc01] C:\Users\pvila\.gradle\caches\transforms-2\files-2.1\2aac65ef0746e64ae3f699b917525350\work-runtime-2.7.0-rc01\AndroidManifest.xml:123:13-99
intent-filter#action:name:androidx.work.impl.background.systemalarm.UpdateProxies
ADDED from [androidx.work:work-runtime:2.7.0-rc01] C:\Users\pvila\.gradle\caches\transforms-2\files-2.1\2aac65ef0746e64ae3f699b917525350\work-runtime-2.7.0-rc01\AndroidManifest.xml:128:13-130:29
action#androidx.work.impl.background.systemalarm.UpdateProxies
ADDED from [androidx.work:work-runtime:2.7.0-rc01] C:\Users\pvila\.gradle\caches\transforms-2\files-2.1\2aac65ef0746e64ae3f699b917525350\work-runtime-2.7.0-rc01\AndroidManifest.xml:129:17-98
	android:name
		ADDED from [androidx.work:work-runtime:2.7.0-rc01] C:\Users\pvila\.gradle\caches\transforms-2\files-2.1\2aac65ef0746e64ae3f699b917525350\work-runtime-2.7.0-rc01\AndroidManifest.xml:129:25-95
receiver#androidx.work.impl.diagnostics.DiagnosticsReceiver
ADDED from [androidx.work:work-runtime:2.7.0-rc01] C:\Users\pvila\.gradle\caches\transforms-2\files-2.1\2aac65ef0746e64ae3f699b917525350\work-runtime-2.7.0-rc01\AndroidManifest.xml:132:9-142:20
	android:enabled
		ADDED from [androidx.work:work-runtime:2.7.0-rc01] C:\Users\pvila\.gradle\caches\transforms-2\files-2.1\2aac65ef0746e64ae3f699b917525350\work-runtime-2.7.0-rc01\AndroidManifest.xml:135:13-35
	android:exported
		ADDED from [androidx.work:work-runtime:2.7.0-rc01] C:\Users\pvila\.gradle\caches\transforms-2\files-2.1\2aac65ef0746e64ae3f699b917525350\work-runtime-2.7.0-rc01\AndroidManifest.xml:136:13-36
	android:permission
		ADDED from [androidx.work:work-runtime:2.7.0-rc01] C:\Users\pvila\.gradle\caches\transforms-2\files-2.1\2aac65ef0746e64ae3f699b917525350\work-runtime-2.7.0-rc01\AndroidManifest.xml:137:13-57
	tools:targetApi
		ADDED from [androidx.work:work-runtime:2.7.0-rc01] C:\Users\pvila\.gradle\caches\transforms-2\files-2.1\2aac65ef0746e64ae3f699b917525350\work-runtime-2.7.0-rc01\AndroidManifest.xml:138:13-32
	android:directBootAware
		ADDED from [androidx.work:work-runtime:2.7.0-rc01] C:\Users\pvila\.gradle\caches\transforms-2\files-2.1\2aac65ef0746e64ae3f699b917525350\work-runtime-2.7.0-rc01\AndroidManifest.xml:134:13-44
	android:name
		ADDED from [androidx.work:work-runtime:2.7.0-rc01] C:\Users\pvila\.gradle\caches\transforms-2\files-2.1\2aac65ef0746e64ae3f699b917525350\work-runtime-2.7.0-rc01\AndroidManifest.xml:133:13-78
intent-filter#action:name:androidx.work.diagnostics.REQUEST_DIAGNOSTICS
ADDED from [androidx.work:work-runtime:2.7.0-rc01] C:\Users\pvila\.gradle\caches\transforms-2\files-2.1\2aac65ef0746e64ae3f699b917525350\work-runtime-2.7.0-rc01\AndroidManifest.xml:139:13-141:29
action#androidx.work.diagnostics.REQUEST_DIAGNOSTICS
ADDED from [androidx.work:work-runtime:2.7.0-rc01] C:\Users\pvila\.gradle\caches\transforms-2\files-2.1\2aac65ef0746e64ae3f699b917525350\work-runtime-2.7.0-rc01\AndroidManifest.xml:140:17-88
	android:name
		ADDED from [androidx.work:work-runtime:2.7.0-rc01] C:\Users\pvila\.gradle\caches\transforms-2\files-2.1\2aac65ef0746e64ae3f699b917525350\work-runtime-2.7.0-rc01\AndroidManifest.xml:140:25-85
service#androidx.room.MultiInstanceInvalidationService
ADDED from [androidx.room:room-runtime:2.2.5] C:\Users\pvila\.gradle\caches\transforms-2\files-2.1\ea5ccf729e19bc8d9f7e9658551e5b18\room-runtime-2.2.5\AndroidManifest.xml:25:9-28:40
	android:exported
		ADDED from [androidx.room:room-runtime:2.2.5] C:\Users\pvila\.gradle\caches\transforms-2\files-2.1\ea5ccf729e19bc8d9f7e9658551e5b18\room-runtime-2.2.5\AndroidManifest.xml:28:13-37
	android:directBootAware
		ADDED from [androidx.room:room-runtime:2.2.5] C:\Users\pvila\.gradle\caches\transforms-2\files-2.1\ea5ccf729e19bc8d9f7e9658551e5b18\room-runtime-2.2.5\AndroidManifest.xml:27:13-43
	android:name
		ADDED from [androidx.room:room-runtime:2.2.5] C:\Users\pvila\.gradle\caches\transforms-2\files-2.1\ea5ccf729e19bc8d9f7e9658551e5b18\room-runtime-2.2.5\AndroidManifest.xml:26:13-74
